[
  {
    "model": "auth.group",
    "pk": null,
    "fields": {
      "name": "Teacher",
      "permissions": []
    }
  },
  {
    "model": "core.generalparameter",
    "pk": null,
    "fields": {
    }
  }
]